{ "backgroundcolor":"#000000",
 "compressionlevel":-1,
 "height":21,
 "infinite":false,
 "layers":[
        {
         "data":[0, 0, 0, 0, 0, 0, 0, 0, 0, 0, 0, 0, 0, 0, 0, 0, 0, 0, 0, 0, 0, 0, 0, 0, 0, 0, 0, 0, 0, 0, 0, 0, 0, 0, 0, 0, 0, 0, 0, 0, 0, 0, 0, 0, 0, 0, 0, 0, 0, 0, 0, 0, 0, 0, 0, 0, 0, 0, 0, 0, 0, 0, 0, 0, 0, 0, 0, 0, 0, 0, 0, 0, 0, 0, 0, 0, 0, 0, 0, 0, 0, 0, 0, 0, 0, 0, 0, 0, 0, 0, 0, 0, 0, 0, 0, 0, 0, 0, 0, 0, 0, 0, 0, 0, 0, 0, 0, 0, 0, 0, 0, 0, 0, 0, 0, 0, 0, 0, 0, 0, 0, 0, 0, 0, 0, 0, 0, 0, 0, 0, 0, 0, 0, 0, 0, 0, 0, 0, 0, 0, 0, 0, 0, 0, 0, 0, 0, 0, 0, 0, 0, 0, 0, 0, 0, 0, 0, 0, 0, 0, 0, 0, 0, 0, 0, 0, 0, 0, 0, 0, 0, 0, 0, 0, 0, 0, 0, 0, 0, 0, 0, 0, 0, 0, 0, 0, 0, 0, 0, 0, 0, 0, 0, 0, 0, 0, 0, 0, 0, 0, 0, 0, 0, 0, 0, 0, 0, 0, 0, 0, 0, 0, 0, 0, 0, 0, 0, 0, 0, 0, 0, 0, 0, 0, 0, 0, 0, 0, 0, 0, 0, 0, 0, 0, 0, 0, 0, 0, 0, 0, 0, 0, 0, 0, 0, 0, 0, 0, 0, 0, 0, 0, 0, 0, 0, 0, 0, 0, 0, 0, 0, 0, 0, 0, 0, 0, 0, 0, 0, 0, 0, 0, 0, 0, 0, 0, 0, 0, 0, 0, 0, 0, 0, 0, 0, 0, 0, 0, 0, 0, 0, 0, 0, 0, 0, 0, 0, 0, 0, 0, 0, 0, 0, 0, 0, 0, 0, 0, 0, 0, 0, 0, 0, 0, 0, 0, 0, 0, 0, 0, 0, 0, 0, 0, 0, 0, 0, 0, 0, 0, 0, 0, 0, 0, 0, 0, 0, 0, 0, 0, 0, 0, 0, 0, 0, 0, 0, 0, 0, 0, 0, 0, 0, 0, 1026, 1026, 1026, 1026, 0, 0, 0, 0, 0, 0, 0, 0, 0, 0, 0, 0, 0, 0, 0, 0, 0, 0, 0, 0, 0, 0, 0, 0, 0, 0, 0, 0, 0, 0, 0, 0, 0, 0, 0, 0, 0, 0, 0, 0, 0, 0, 0, 0, 0, 0, 0, 0, 0, 0, 0, 0, 0, 0, 0, 0, 0, 0, 0, 0, 0, 0, 0, 0, 0, 0, 0, 0, 0, 0, 0, 0, 0, 0, 0, 0, 0, 0, 0, 0, 0, 0, 0, 0, 0, 0, 0, 0, 0, 0, 0, 0, 0, 0, 0, 0, 0, 0, 0, 0, 0, 0, 0, 0, 0, 0, 0, 0, 0, 0, 0, 0, 0, 0, 0, 0, 0, 0, 0, 0, 0, 0, 0, 0, 0],
         "height":21,
         "id":4,
         "name":"start",
         "opacity":1,
         "properties":[
                {
                 "name":"startLayer",
                 "type":"bool",
                 "value":true
                }],
         "type":"tilelayer",
         "visible":true,
         "width":23,
         "x":0,
         "y":0
        }, 
        {
         "data":[0, 0, 0, 0, 0, 0, 0, 0, 0, 0, 0, 0, 0, 0, 0, 0, 0, 0, 0, 0, 0, 0, 0, 0, 0, 0, 0, 0, 0, 0, 0, 0, 0, 0, 0, 0, 0, 0, 0, 0, 0, 0, 0, 0, 0, 0, 0, 0, 0, 0, 0, 0, 0, 0, 0, 0, 0, 0, 0, 0, 0, 0, 0, 0, 0, 0, 0, 0, 0, 0, 0, 0, 0, 0, 0, 0, 0, 0, 0, 0, 0, 0, 0, 0, 0, 0, 0, 0, 0, 0, 0, 0, 0, 0, 0, 0, 0, 0, 0, 0, 0, 0, 0, 0, 0, 0, 0, 0, 0, 0, 0, 0, 0, 0, 0, 0, 0, 0, 0, 0, 0, 0, 0, 0, 0, 0, 0, 0, 0, 0, 0, 0, 0, 0, 0, 0, 0, 0, 0, 0, 0, 0, 0, 0, 0, 0, 0, 0, 0, 0, 0, 0, 0, 0, 0, 0, 0, 0, 0, 0, 0, 0, 0, 0, 0, 0, 0, 0, 0, 0, 0, 0, 0, 0, 0, 0, 0, 0, 0, 0, 0, 0, 0, 0, 0, 0, 0, 0, 0, 0, 0, 0, 0, 0, 0, 0, 0, 0, 0, 0, 0, 0, 0, 0, 0, 0, 0, 0, 0, 0, 0, 0, 0, 0, 0, 0, 0, 0, 0, 0, 0, 0, 0, 0, 0, 0, 0, 0, 0, 0, 0, 0, 0, 0, 0, 0, 0, 0, 0, 0, 0, 0, 0, 0, 0, 0, 0, 0, 0, 0, 0, 0, 0, 0, 0, 0, 0, 0, 0, 0, 0, 0, 0, 0, 0, 0, 0, 0, 0, 0, 0, 0, 0, 0, 0, 0, 0, 0, 0, 0, 0, 0, 0, 0, 0, 0, 0, 0, 0, 0, 0, 0, 0, 0, 0, 0, 0, 0, 0, 0, 0, 0, 0, 0, 0, 0, 0, 0, 0, 0, 0, 0, 0, 0, 0, 0, 0, 0, 0, 0, 0, 0, 0, 0, 0, 0, 0, 0, 0, 0, 0, 0, 0, 0, 0, 0, 0, 0, 0, 0, 0, 0, 0, 0, 0, 0, 0, 0, 0, 0, 0, 0, 0, 0, 0, 0, 0, 0, 0, 0, 0, 0, 0, 0, 0, 0, 0, 0, 0, 0, 0, 0, 0, 0, 0, 0, 0, 0, 0, 0, 0, 0, 0, 0, 0, 0, 0, 0, 0, 0, 0, 0, 0, 0, 0, 0, 0, 0, 0, 0, 0, 0, 0, 0, 0, 0, 0, 0, 0, 0, 0, 0, 0, 0, 0, 0, 0, 0, 0, 1025, 1025, 1025, 1025, 1025, 1025, 1025, 1025, 1025, 1025, 1025, 1025, 1025, 0, 0, 0, 0, 0, 0, 0, 0, 0, 0, 1025, 1025, 1025, 1025, 1025, 1025, 1025, 1025, 1025, 1025, 1025, 1025, 1025, 0, 0, 0, 0, 0, 0, 0, 0, 0, 0, 0, 0, 0, 0, 0, 0, 0, 0, 0, 0, 0, 0, 0, 0, 0, 0, 0, 0],
         "height":21,
         "id":7,
         "name":"exit",
         "opacity":1,
         "properties":[
                {
                 "name":"exitUrl",
                 "type":"string",
                 "value":"main.json#StartFromBigTent"
                }],
         "type":"tilelayer",
         "visible":true,
         "width":23,
         "x":0,
         "y":0
        }, 
        {
         "data":[0, 0, 0, 0, 0, 0, 0, 0, 0, 0, 0, 0, 0, 0, 0, 0, 0, 0, 0, 0, 0, 0, 0, 0, 0, 0, 0, 0, 0, 0, 0, 0, 0, 0, 0, 0, 0, 0, 0, 0, 0, 0, 0, 0, 0, 0, 0, 0, 0, 0, 0, 0, 0, 0, 0, 0, 0, 0, 0, 0, 0, 0, 0, 0, 0, 0, 0, 0, 0, 0, 0, 0, 0, 0, 0, 0, 0, 0, 0, 0, 0, 0, 0, 0, 0, 0, 0, 0, 0, 0, 0, 0, 0, 0, 0, 0, 0, 0, 0, 0, 0, 0, 0, 0, 0, 0, 0, 0, 0, 0, 0, 0, 0, 0, 0, 0, 0, 0, 0, 0, 0, 0, 0, 0, 0, 0, 0, 0, 0, 0, 0, 0, 0, 0, 0, 0, 0, 0, 0, 0, 0, 0, 0, 0, 0, 0, 0, 0, 0, 0, 0, 0, 0, 0, 0, 0, 0, 0, 0, 0, 0, 0, 0, 0, 0, 0, 0, 0, 0, 0, 0, 0, 0, 0, 0, 0, 0, 0, 0, 0, 0, 0, 0, 0, 0, 0, 0, 0, 0, 0, 0, 0, 0, 0, 0, 0, 0, 0, 0, 0, 0, 0, 0, 0, 0, 0, 0, 0, 0, 0, 0, 0, 0, 0, 0, 0, 0, 0, 0, 0, 0, 0, 0, 0, 0, 0, 0, 0, 0, 0, 0, 0, 0, 0, 0, 0, 0, 0, 0, 0, 0, 0, 0, 0, 0, 0, 0, 0, 0, 0, 0, 0, 0, 0, 0, 0, 0, 0, 0, 0, 0, 0, 0, 0, 0, 0, 0, 0, 0, 0, 0, 0, 0, 0, 0, 0, 0, 0, 0, 0, 0, 0, 0, 0, 0, 0, 0, 0, 0, 0, 0, 0, 0, 0, 0, 0, 0, 0, 0, 0, 0, 0, 0, 0, 0, 0, 0, 0, 0, 0, 0, 0, 0, 0, 0, 0, 0, 0, 0, 0, 0, 0, 0, 0, 0, 0, 0, 0, 1033, 1033, 0, 0, 0, 0, 0, 0, 1033, 1033, 1033, 0, 0, 0, 0, 0, 0, 0, 0, 0, 0, 0, 0, 1033, 1033, 0, 0, 0, 0, 0, 0, 1033, 1033, 1033, 0, 0, 0, 0, 0, 0, 0, 0, 0, 0, 0, 0, 0, 0, 0, 0, 0, 0, 0, 0, 0, 0, 0, 0, 0, 0, 0, 0, 0, 0, 0, 0, 0, 0, 0, 0, 0, 0, 0, 0, 0, 0, 0, 0, 0, 0, 0, 0, 0, 0, 0, 0, 0, 0, 0, 0, 0, 0, 0, 0, 0, 0, 0, 0, 0, 0, 0, 0, 0, 0, 0, 0, 0, 0, 0, 0, 0, 0, 0, 0, 0, 0, 0, 0, 0, 0, 0, 0, 0, 0, 0, 0, 0, 0, 0, 0, 0, 0, 0, 0, 0, 0, 0, 0, 0, 0, 0, 0, 0, 0, 0, 0, 0, 0, 0, 0, 0, 0, 0, 0, 0],
         "height":21,
         "id":10,
         "name":"URL - Urban Art",
         "opacity":1,
         "properties":[
                {
                 "name":"openWebsite",
                 "type":"string",
                 "value":"https:\/\/rc3.challengepower.info\/draw\/a.html?cats=streetart"
                }, 
                {
                 "name":"openWebsiteWidth",
                 "type":"int",
                 "value":66
                }],
         "type":"tilelayer",
         "visible":true,
         "width":23,
         "x":0,
         "y":0
        }, 
        {
         "data":[0, 0, 0, 0, 0, 0, 0, 0, 0, 0, 0, 0, 0, 0, 0, 0, 0, 0, 0, 0, 0, 0, 0, 0, 0, 0, 0, 0, 0, 0, 0, 0, 0, 0, 0, 0, 0, 0, 0, 0, 0, 0, 0, 0, 0, 0, 0, 0, 0, 0, 0, 0, 0, 0, 0, 0, 0, 0, 0, 0, 0, 0, 0, 0, 0, 0, 0, 0, 0, 0, 0, 0, 0, 0, 0, 0, 0, 0, 0, 0, 0, 0, 0, 0, 0, 0, 0, 0, 0, 0, 0, 0, 0, 0, 0, 0, 0, 0, 0, 0, 0, 0, 0, 0, 0, 0, 0, 0, 0, 0, 0, 0, 0, 0, 0, 0, 0, 0, 0, 0, 0, 0, 0, 0, 0, 0, 0, 0, 0, 0, 0, 0, 0, 0, 0, 0, 0, 0, 0, 0, 0, 0, 0, 0, 0, 0, 0, 0, 0, 0, 0, 0, 0, 0, 0, 0, 0, 0, 0, 0, 0, 0, 0, 0, 0, 0, 0, 0, 0, 0, 0, 0, 0, 0, 0, 0, 0, 0, 0, 0, 0, 0, 0, 0, 0, 0, 0, 0, 0, 0, 0, 0, 0, 0, 0, 0, 0, 0, 0, 0, 0, 0, 0, 0, 0, 0, 0, 0, 0, 0, 0, 0, 0, 0, 0, 0, 0, 0, 0, 0, 0, 0, 0, 0, 0, 0, 0, 0, 0, 0, 0, 0, 0, 0, 0, 0, 0, 0, 0, 0, 0, 0, 0, 0, 0, 0, 0, 0, 0, 0, 0, 0, 0, 0, 0, 0, 0, 0, 0, 0, 0, 0, 0, 0, 0, 0, 0, 0, 0, 0, 0, 0, 0, 0, 0, 0, 0, 0, 0, 0, 0, 0, 0, 0, 0, 0, 0, 0, 0, 0, 0, 0, 0, 0, 0, 0, 0, 0, 0, 0, 0, 0, 0, 0, 0, 0, 0, 0, 1033, 1033, 1033, 0, 0, 0, 0, 0, 0, 0, 0, 0, 0, 0, 0, 0, 0, 0, 0, 0, 0, 0, 0, 1033, 1033, 1033, 0, 0, 0, 0, 0, 0, 0, 0, 0, 0, 0, 0, 0, 0, 0, 0, 0, 0, 0, 0, 0, 0, 0, 0, 0, 0, 0, 0, 0, 0, 0, 0, 0, 0, 0, 0, 0, 0, 0, 0, 0, 0, 0, 0, 0, 0, 0, 0, 0, 0, 0, 0, 0, 0, 0, 0, 0, 0, 0, 0, 0, 0, 0, 0, 0, 0, 0, 0, 0, 0, 0, 0, 0, 0, 0, 0, 0, 0, 0, 0, 0, 0, 0, 0, 0, 0, 0, 0, 0, 0, 0, 0, 0, 0, 0, 0, 0, 0, 0, 0, 0, 0, 0, 0, 0, 0, 0, 0, 0, 0, 0, 0, 0, 0, 0, 0, 0, 0, 0, 0, 0, 0, 0, 0, 0, 0, 0, 0, 0, 0, 0, 0, 0, 0, 0, 0, 0, 0, 0, 0, 0, 0, 0, 0, 0, 0, 0, 0, 0],
         "height":21,
         "id":15,
         "name":"URL - Gallerist",
         "opacity":1,
         "properties":[
                {
                 "name":"openWebsite",
                 "type":"string",
                 "value":"https:\/\/rc3.challengepower.info\/Gallerist.html"
                }, 
                {
                 "name":"openWebsiteTrigger",
                 "type":"string",
                 "value":"onaction"
                }, 
                {
                 "name":"openWebsiteTriggerMessage",
                 "type":"string",
                 "value":"That strange person wants to talk to you!"
                }],
         "type":"tilelayer",
         "visible":true,
         "width":23,
         "x":0,
         "y":0
        }, 
        {
         "data":[0, 0, 0, 0, 0, 0, 0, 0, 0, 0, 0, 0, 0, 0, 0, 0, 0, 0, 0, 0, 0, 0, 0, 0, 0, 0, 0, 0, 0, 0, 0, 0, 0, 0, 0, 0, 0, 0, 0, 0, 0, 0, 0, 0, 0, 0, 0, 0, 0, 0, 0, 0, 0, 0, 0, 0, 0, 0, 0, 0, 0, 0, 0, 0, 0, 0, 0, 0, 0, 0, 0, 0, 0, 0, 0, 0, 0, 0, 0, 0, 0, 0, 0, 0, 0, 0, 0, 0, 0, 0, 0, 0, 0, 0, 0, 0, 0, 0, 0, 0, 0, 0, 0, 0, 0, 0, 0, 0, 0, 0, 0, 0, 0, 0, 0, 0, 0, 0, 0, 0, 0, 0, 0, 0, 0, 0, 0, 0, 0, 0, 0, 0, 0, 0, 0, 0, 0, 0, 0, 0, 0, 0, 0, 0, 0, 0, 0, 1033, 1033, 0, 0, 0, 1033, 1033, 0, 0, 0, 0, 0, 0, 0, 0, 0, 0, 0, 0, 0, 0, 0, 0, 1033, 1033, 0, 0, 0, 1033, 1033, 0, 0, 0, 0, 0, 0, 0, 0, 0, 0, 0, 0, 0, 0, 0, 0, 0, 0, 0, 0, 0, 0, 0, 0, 0, 0, 0, 0, 0, 0, 0, 0, 0, 0, 0, 0, 0, 0, 0, 0, 0, 0, 0, 0, 0, 0, 0, 0, 0, 0, 0, 0, 0, 0, 0, 0, 0, 0, 0, 0, 0, 0, 0, 0, 0, 0, 0, 0, 0, 0, 0, 0, 0, 0, 0, 0, 0, 0, 0, 0, 0, 0, 0, 0, 0, 0, 0, 0, 0, 0, 0, 0, 0, 0, 0, 0, 0, 0, 0, 0, 0, 0, 0, 0, 0, 0, 0, 0, 0, 0, 0, 0, 0, 0, 0, 0, 0, 0, 0, 0, 0, 0, 0, 0, 0, 0, 0, 0, 0, 0, 0, 0, 0, 0, 0, 0, 0, 0, 0, 0, 0, 0, 0, 0, 0, 0, 0, 0, 0, 0, 0, 0, 0, 0, 0, 0, 0, 0, 0, 0, 0, 0, 0, 0, 0, 0, 0, 0, 0, 0, 0, 0, 0, 0, 0, 0, 0, 0, 0, 0, 0, 0, 0, 0, 0, 0, 0, 0, 0, 0, 0, 0, 0, 0, 0, 0, 0, 0, 0, 0, 0, 0, 0, 0, 0, 0, 0, 0, 0, 0, 0, 0, 0, 0, 0, 0, 0, 0, 0, 0, 0, 0, 0, 0, 0, 0, 0, 0, 0, 0, 0, 0, 0, 0, 0, 0, 0, 0, 0, 0, 0, 0, 0, 0, 0, 0, 0, 0, 0, 0, 0, 0, 0, 0, 0, 0, 0, 0, 0, 0, 0, 0, 0, 0, 0, 0, 0, 0, 0, 0, 0, 0, 0, 0, 0, 0, 0, 0, 0, 0, 0, 0, 0, 0, 0, 0, 0, 0, 0, 0, 0, 0, 0, 0, 0, 0, 0, 0, 0, 0, 0, 0, 0, 0, 0, 0],
         "height":21,
         "id":14,
         "name":"URL - Protest",
         "opacity":1,
         "properties":[
                {
                 "name":"openWebsite",
                 "type":"string",
                 "value":"https:\/\/rc3.challengepower.info\/draw\/a.html?cats=protest"
                }, 
                {
                 "name":"openWebsiteWidth",
                 "type":"int",
                 "value":66
                }],
         "type":"tilelayer",
         "visible":true,
         "width":23,
         "x":0,
         "y":0
        }, 
        {
         "data":[0, 0, 0, 0, 0, 0, 0, 0, 0, 0, 0, 0, 0, 0, 0, 0, 0, 0, 0, 0, 0, 0, 0, 0, 0, 0, 0, 0, 0, 0, 0, 0, 0, 0, 0, 0, 0, 0, 0, 0, 0, 0, 0, 0, 0, 0, 0, 0, 0, 0, 0, 0, 0, 0, 0, 0, 0, 0, 0, 0, 0, 0, 0, 0, 0, 0, 0, 0, 0, 0, 0, 0, 0, 0, 0, 0, 0, 0, 0, 0, 0, 0, 0, 0, 0, 0, 0, 0, 0, 0, 0, 0, 0, 0, 0, 0, 0, 0, 0, 0, 0, 0, 0, 0, 0, 0, 0, 0, 0, 0, 0, 0, 0, 0, 0, 0, 0, 0, 0, 0, 0, 0, 0, 0, 0, 0, 0, 0, 0, 0, 0, 0, 0, 0, 0, 0, 0, 0, 0, 0, 0, 0, 0, 0, 0, 0, 0, 0, 0, 0, 0, 0, 0, 0, 0, 0, 0, 0, 0, 0, 0, 0, 0, 0, 0, 0, 0, 0, 0, 0, 0, 0, 0, 0, 0, 0, 0, 0, 0, 0, 0, 0, 0, 0, 0, 0, 0, 0, 0, 0, 0, 0, 0, 0, 0, 0, 0, 0, 0, 0, 0, 0, 0, 0, 0, 0, 0, 0, 0, 0, 0, 0, 0, 0, 0, 0, 0, 0, 0, 0, 0, 0, 0, 0, 0, 0, 0, 0, 0, 0, 0, 0, 0, 0, 0, 0, 0, 1033, 1033, 0, 0, 0, 0, 0, 0, 1033, 1033, 0, 0, 0, 0, 0, 0, 0, 0, 0, 0, 0, 0, 0, 1033, 1033, 0, 0, 0, 0, 0, 0, 1033, 1033, 0, 0, 0, 0, 0, 0, 0, 0, 0, 0, 0, 0, 0, 0, 0, 0, 0, 0, 0, 0, 0, 0, 0, 0, 0, 0, 0, 0, 0, 0, 0, 0, 0, 0, 0, 0, 0, 0, 0, 0, 0, 0, 0, 0, 0, 0, 0, 0, 0, 0, 0, 0, 0, 0, 0, 0, 0, 0, 0, 0, 0, 0, 0, 0, 0, 0, 0, 0, 0, 0, 0, 0, 0, 0, 0, 0, 0, 0, 0, 0, 0, 0, 0, 0, 0, 0, 0, 0, 0, 0, 0, 0, 0, 0, 0, 0, 0, 0, 0, 0, 0, 0, 0, 0, 0, 0, 0, 0, 0, 0, 0, 0, 0, 0, 0, 0, 0, 0, 0, 0, 0, 0, 0, 0, 0, 0, 0, 0, 0, 0, 0, 0, 0, 0, 0, 0, 0, 0, 0, 0, 0, 0, 0, 0, 0, 0, 0, 0, 0, 0, 0, 0, 0, 0, 0, 0, 0, 0, 0, 0, 0, 0, 0, 0, 0, 0, 0, 0, 0, 0, 0, 0, 0, 0, 0, 0, 0, 0, 0, 0, 0, 0, 0, 0, 0, 0, 0, 0, 0, 0, 0, 0, 0, 0, 0, 0, 0, 0, 0, 0, 0, 0, 0, 0, 0, 0, 0, 0, 0, 0, 0, 0, 0],
         "height":21,
         "id":13,
         "name":"URL - Artists for Assange",
         "opacity":1,
         "properties":[
                {
                 "name":"openWebsite",
                 "type":"string",
                 "value":"https:\/\/rc3.challengepower.info\/draw\/a.html?cats=artistsforassange"
                }, 
                {
                 "name":"openWebsiteWidth",
                 "type":"int",
                 "value":66
                }],
         "type":"tilelayer",
         "visible":true,
         "width":23,
         "x":0,
         "y":0
        }, 
        {
         "data":[0, 0, 0, 0, 0, 0, 0, 0, 0, 0, 0, 0, 0, 0, 0, 0, 0, 0, 0, 0, 0, 0, 0, 0, 0, 0, 0, 0, 0, 1034, 1034, 1034, 1034, 1034, 1034, 1034, 1034, 1034, 1034, 1034, 0, 0, 0, 0, 0, 0, 0, 0, 0, 1034, 1034, 1034, 1034, 1034, 1034, 1034, 1034, 1034, 1034, 1034, 1034, 1034, 1034, 1034, 1034, 1034, 0, 0, 0, 0, 0, 1034, 1034, 1034, 916, 2147484564, 916, 2147484564, 916, 2147484564, 2147484564, 916, 916, 2147484564, 916, 916, 916, 1034, 1034, 1034, 0, 0, 0, 1034, 1034, 1034, 1034, 932, 2147484580, 932, 2147484580, 932, 2147484580, 2147484580, 932, 932, 2147484580, 932, 932, 932, 1034, 1034, 1034, 1034, 0, 0, 1034, 1034, 1034, 1034, 0, 0, 0, 0, 0, 0, 0, 0, 0, 0, 0, 0, 0, 1034, 1034, 1034, 1034, 0, 0, 1034, 1034, 1034, 4270, 4270, 4270, 4270, 4270, 4270, 4270, 4270, 4270, 4270, 4270, 4270, 4270, 4270, 4270, 1034, 1034, 1034, 0, 1034, 1034, 1034, 1034, 4270, 4270, 4270, 4270, 4270, 4270, 4270, 4270, 4270, 4270, 4270, 4270, 4270, 4270, 4270, 1034, 1034, 1034, 1034, 1034, 1034, 1034, 1034, 4270, 4270, 4270, 4270, 4270, 4270, 4270, 4270, 4270, 4270, 4270, 4270, 4270, 4270, 4270, 1034, 1034, 1034, 1034, 1034, 1034, 1034, 1034, 4270, 4270, 4270, 4270, 4270, 4270, 4270, 4270, 4270, 4270, 4270, 4270, 4270, 4270, 4270, 1034, 1034, 1034, 1034, 1034, 1034, 1034, 1034, 4270, 4270, 4270, 4270, 4270, 4270, 4270, 4270, 4270, 4270, 4270, 4270, 4270, 4270, 4270, 1034, 1034, 1034, 1034, 1034, 1034, 1034, 1034, 4270, 4270, 4270, 4270, 4270, 4270, 4270, 4270, 4270, 4270, 4270, 4270, 4270, 4270, 4270, 1034, 1034, 1034, 1034, 1034, 1034, 1034, 1034, 4270, 4270, 4270, 4270, 4270, 4270, 4270, 4270, 4270, 4270, 4270, 4270, 4270, 4270, 4270, 1034, 1034, 1034, 1034, 1034, 1034, 1034, 1034, 4270, 4270, 4270, 4270, 4270, 4270, 4270, 4270, 4270, 4270, 4270, 4270, 4270, 4270, 4270, 1034, 1034, 1034, 1034, 1034, 1034, 1034, 1034, 4270, 4270, 4270, 4270, 4270, 4270, 4270, 4270, 4270, 4270, 4270, 4270, 4270, 4270, 4270, 1034, 1034, 1034, 1034, 1034, 1034, 1034, 1034, 4270, 4270, 4270, 4270, 4270, 4270, 4270, 4270, 4270, 4270, 4270, 4270, 4270, 4270, 4270, 1034, 1034, 1034, 0, 0, 1034, 1034, 1034, 4270, 4270, 4270, 4270, 4270, 4270, 4270, 4270, 4270, 4270, 4270, 4270, 4270, 4270, 4270, 1034, 1034, 1034, 0, 0, 1034, 1034, 1034, 4270, 4270, 4270, 4270, 4270, 4270, 4270, 4270, 4270, 4270, 4270, 4270, 4270, 4270, 4270, 1034, 1034, 0, 0, 0, 0, 1034, 1034, 1034, 1034, 1034, 1034, 1034, 1034, 1034, 1034, 1034, 1034, 1034, 1034, 1034, 1034, 1034, 1034, 1034, 0, 0, 0, 0, 0, 1034, 1034, 1034, 1034, 1034, 1034, 1034, 1034, 1034, 1034, 1034, 1034, 1034, 1034, 1034, 1034, 1034, 0, 0, 0, 0, 0, 0, 0, 0, 1034, 1034, 1034, 1034, 1034, 1034, 1034, 1034, 1034, 1034, 1034, 1034, 1034, 1034, 0, 0, 0, 0],
         "height":21,
         "id":1,
         "name":"floor",
         "opacity":1,
         "type":"tilelayer",
         "visible":true,
         "width":23,
         "x":0,
         "y":0
        }, 
        {
         "data":[0, 0, 0, 0, 0, 0, 0, 0, 0, 0, 0, 0, 0, 0, 0, 0, 0, 0, 0, 0, 0, 0, 0, 0, 0, 0, 0, 0, 0, 0, 1077, 0, 0, 0, 1052, 1053, 1044, 1069, 1053, 0, 0, 0, 0, 0, 0, 0, 0, 0, 1044, 1045, 0, 0, 0, 0, 2147484731, 0, 0, 0, 0, 1052, 1053, 2147484730, 0, 0, 1077, 0, 0, 0, 0, 0, 0, 1052, 1053, 2147484730, 0, 0, 0, 0, 0, 0, 0, 0, 0, 0, 0, 0, 0, 0, 1083, 0, 0, 0, 0, 0, 0, 0, 0, 0, 0, 0, 0, 0, 0, 0, 0, 0, 0, 0, 0, 0, 0, 0, 0, 0, 0, 0, 0, 2147484731, 0, 0, 3021, 3021, 3021, 3021, 3021, 3021, 3021, 3021, 3021, 3021, 3021, 3021, 3021, 0, 0, 0, 0, 0, 0, 0, 0, 0, 0, 0, 0, 0, 0, 0, 0, 0, 0, 0, 0, 0, 0, 0, 0, 0, 1084, 0, 0, 0, 2147484730, 0, 0, 0, 0, 0, 0, 0, 0, 0, 4431, 4432, 0, 0, 0, 0, 0, 0, 0, 0, 0, 0, 0, 0, 0, 0, 0, 0, 0, 0, 0, 0, 0, 0, 0, 0, 0, 0, 0, 0, 0, 0, 0, 0, 1044, 0, 0, 0, 0, 0, 3014, 3014, 3014, 3014, 3015, 0, 0, 0, 0, 3013, 3014, 3014, 3014, 0, 0, 0, 2684355643, 1052, 1045, 0, 1084, 0, 0, 0, 0, 0, 0, 0, 0, 0, 0, 0, 0, 0, 0, 0, 0, 0, 0, 0, 1082, 1061, 1083, 0, 0, 0, 0, 0, 0, 0, 0, 0, 0, 0, 0, 0, 0, 0, 0, 0, 0, 1077, 0, 0, 1053, 0, 0, 0, 0, 0, 0, 0, 0, 0, 0, 0, 0, 0, 0, 0, 0, 0, 0, 0, 0, 0, 1084, 1077, 0, 0, 0, 0, 3014, 3014, 3014, 3015, 0, 10645, 0, 0, 3013, 3014, 3014, 3014, 3014, 0, 0, 1082, 0, 0, 0, 2147484730, 0, 0, 0, 0, 0, 0, 0, 0, 0, 0, 0, 0, 0, 0, 0, 0, 0, 0, 0, 0, 1077, 0, 0, 1083, 0, 0, 0, 0, 0, 0, 0, 0, 0, 0, 0, 0, 0, 0, 0, 0, 0, 2684355643, 0, 0, 0, 0, 0, 0, 0, 0, 0, 0, 0, 0, 0, 0, 0, 0, 0, 0, 0, 0, 0, 0, 0, 0, 0, 0, 0, 0, 0, 0, 0, 0, 0, 0, 0, 0, 0, 0, 0, 0, 0, 0, 0, 0, 0, 0, 0, 0, 0, 0, 0, 0, 0, 0, 0, 0, 0, 0, 0, 0, 1083, 0, 0, 0, 0, 0, 0, 0, 0, 0, 0, 0, 0, 0, 0, 1084, 0, 2147484730, 0, 0, 1083, 0, 0, 0, 0, 0, 1082, 0, 0, 2684355643, 0, 0, 0, 0, 0, 0, 0, 0, 0, 0, 0, 0, 0, 0, 0, 0, 0, 0, 0, 0, 0, 0, 0, 0, 0, 0, 0],
         "height":21,
         "id":6,
         "name":"under",
         "opacity":1,
         "type":"tilelayer",
         "visible":true,
         "width":23,
         "x":0,
         "y":0
        }, 
        {
         "data":[0, 0, 0, 0, 0, 0, 0, 0, 0, 0, 0, 0, 0, 0, 0, 0, 0, 0, 0, 0, 0, 0, 0, 0, 0, 0, 0, 0, 0, 0, 0, 0, 0, 0, 0, 0, 0, 0, 0, 0, 0, 0, 0, 0, 0, 0, 0, 0, 0, 0, 0, 0, 0, 0, 0, 0, 0, 0, 0, 0, 0, 0, 0, 0, 0, 0, 0, 0, 0, 0, 0, 0, 0, 0, 0, 0, 0, 0, 0, 0, 0, 0, 0, 0, 0, 0, 0, 0, 0, 0, 0, 0, 0, 0, 0, 0, 0, 0, 0, 0, 0, 0, 0, 0, 0, 0, 0, 0, 0, 0, 0, 0, 0, 0, 0, 0, 0, 0, 0, 0, 0, 0, 4664, 0, 4736, 4737, 0, 0, 0, 4834, 4835, 0, 0, 0, 0, 0, 0, 0, 0, 0, 0, 0, 0, 0, 0, 0, 0, 0, 0, 0, 0, 0, 0, 0, 0, 0, 0, 0, 0, 0, 0, 0, 0, 0, 0, 0, 0, 0, 0, 0, 0, 0, 0, 0, 0, 0, 0, 0, 0, 0, 0, 0, 0, 0, 0, 0, 0, 0, 0, 0, 0, 0, 0, 0, 0, 0, 0, 0, 0, 0, 0, 0, 0, 0, 0, 0, 0, 0, 0, 0, 0, 0, 0, 0, 4668, 4669, 0, 0, 0, 0, 0, 0, 4666, 4667, 0, 0, 0, 0, 0, 0, 0, 0, 0, 0, 0, 0, 0, 0, 0, 0, 0, 4607, 0, 0, 0, 0, 0, 0, 0, 0, 0, 0, 0, 0, 0, 0, 0, 0, 0, 0, 0, 0, 0, 0, 0, 0, 0, 0, 0, 0, 0, 0, 0, 0, 0, 0, 0, 0, 0, 0, 0, 0, 0, 0, 0, 0, 0, 0, 0, 0, 0, 0, 0, 0, 0, 0, 0, 0, 0, 0, 0, 0, 0, 0, 0, 4730, 4731, 4672, 0, 0, 0, 0, 0, 4670, 4671, 4767, 0, 0, 0, 0, 0, 0, 0, 0, 0, 0, 0, 0, 0, 0, 0, 0, 0, 0, 0, 0, 0, 0, 0, 0, 0, 0, 0, 0, 0, 0, 0, 0, 0, 0, 0, 0, 0, 0, 0, 0, 0, 0, 0, 0, 0, 0, 0, 0, 0, 0, 0, 0, 0, 0, 0, 0, 0, 0, 0, 0, 0, 0, 0, 0, 0, 0, 0, 0, 0, 0, 0, 0, 0, 0, 0, 0, 0, 0, 0, 0, 0, 0, 0, 0, 0, 0, 0, 0, 0, 0, 0, 0, 0, 0, 0, 0, 0, 0, 0, 0, 0, 0, 0, 0, 0, 0, 0, 0, 0, 0, 0, 0, 0, 0, 0, 0, 0, 0, 0, 0, 0, 0, 0, 0, 0, 0, 0, 0, 0, 0, 0, 0, 0, 0, 0, 0, 0, 0, 0, 0, 0, 0, 0, 0, 0, 0, 0, 0, 0, 0, 0, 0, 0, 0, 0, 0, 0, 0, 0, 0, 0, 0, 0, 0, 0, 0, 0],
         "height":21,
         "id":8,
         "name":"atop under",
         "opacity":1,
         "type":"tilelayer",
         "visible":true,
         "width":23,
         "x":0,
         "y":0
        }, 
        {
         "draworder":"topdown",
         "id":3,
         "name":"floorLayer",
         "objects":[],
         "opacity":1,
         "type":"objectgroup",
         "visible":true,
         "x":0,
         "y":0
        }, 
        {
         "data":[0, 0, 0, 0, 0, 0, 0, 0, 0, 0, 0, 0, 0, 0, 0, 0, 0, 0, 0, 0, 0, 0, 0, 0, 0, 0, 0, 0, 0, 0, 0, 0, 0, 0, 0, 0, 0, 0, 0, 0, 0, 0, 0, 0, 0, 0, 0, 0, 0, 0, 0, 0, 0, 0, 0, 0, 0, 0, 0, 0, 0, 0, 0, 0, 0, 0, 0, 0, 0, 0, 0, 0, 0, 0, 0, 0, 0, 0, 0, 0, 0, 0, 0, 0, 0, 0, 0, 0, 0, 0, 0, 0, 0, 0, 0, 0, 0, 2989, 2989, 2989, 2989, 2989, 2989, 2989, 2989, 2989, 2989, 2989, 2989, 2989, 0, 0, 0, 0, 0, 0, 0, 0, 0, 0, 0, 0, 0, 0, 0, 0, 0, 0, 0, 0, 0, 0, 0, 0, 0, 0, 0, 0, 0, 0, 0, 0, 0, 0, 0, 0, 0, 0, 0, 4415, 4416, 0, 0, 0, 0, 0, 0, 0, 0, 0, 0, 0, 0, 0, 0, 0, 0, 0, 0, 0, 0, 0, 0, 0, 0, 0, 0, 0, 0, 0, 0, 0, 0, 0, 0, 0, 0, 0, 0, 2982, 2982, 2982, 2982, 2983, 0, 0, 0, 0, 2981, 2982, 2982, 2982, 0, 0, 0, 0, 0, 0, 0, 0, 0, 0, 0, 0, 0, 0, 0, 0, 4591, 0, 0, 0, 0, 0, 0, 0, 0, 0, 0, 0, 0, 0, 0, 0, 0, 0, 0, 0, 0, 0, 0, 0, 0, 0, 0, 0, 0, 0, 0, 0, 0, 0, 0, 0, 0, 0, 0, 0, 0, 0, 0, 0, 0, 0, 0, 0, 0, 0, 0, 0, 0, 0, 0, 0, 0, 0, 0, 0, 0, 0, 0, 2982, 2982, 2982, 2983, 0, 10662, 0, 0, 2981, 2982, 2982, 2982, 2982, 0, 0, 0, 0, 0, 0, 0, 0, 0, 0, 0, 0, 0, 0, 0, 0, 0, 0, 0, 0, 0, 0, 0, 0, 0, 0, 0, 0, 0, 0, 0, 0, 0, 0, 0, 0, 0, 0, 0, 0, 0, 0, 0, 0, 0, 0, 0, 0, 0, 0, 0, 0, 0, 0, 0, 0, 0, 0, 0, 0, 0, 0, 0, 0, 0, 0, 0, 0, 0, 0, 0, 0, 0, 0, 0, 0, 0, 0, 0, 0, 0, 0, 0, 0, 0, 0, 0, 0, 0, 0, 0, 0, 0, 0, 0, 0, 0, 0, 0, 0, 0, 0, 0, 0, 0, 0, 0, 0, 0, 0, 0, 0, 0, 0, 0, 0, 0, 0, 0, 0, 0, 0, 0, 0, 0, 0, 0, 0, 0, 0, 0, 0, 0, 0, 0, 0, 0, 0, 0, 0, 0, 0, 0, 0, 0, 0, 0, 0, 0, 0, 0, 0, 0, 0, 0, 0, 0, 0, 0, 0, 0, 0, 0, 0, 0, 0, 0, 0, 0, 0, 0, 0, 0, 0, 0, 0, 0, 0, 0, 0, 0, 0, 0, 0, 0, 0, 0, 0, 0],
         "height":21,
         "id":11,
         "name":"top",
         "opacity":1,
         "type":"tilelayer",
         "visible":true,
         "width":23,
         "x":0,
         "y":0
        }, 
        {
         "data":[0, 0, 0, 0, 0, 0, 0, 0, 0, 0, 0, 0, 0, 0, 0, 0, 0, 0, 0, 0, 0, 0, 0, 0, 0, 0, 0, 0, 0, 0, 0, 0, 0, 0, 0, 0, 0, 0, 0, 0, 0, 0, 0, 0, 0, 0, 0, 0, 0, 0, 0, 0, 0, 0, 0, 0, 0, 0, 0, 0, 0, 0, 0, 0, 0, 0, 0, 0, 0, 0, 0, 0, 0, 0, 0, 0, 0, 0, 0, 0, 0, 0, 0, 0, 0, 0, 0, 0, 0, 0, 0, 0, 0, 0, 0, 0, 0, 0, 0, 4648, 0, 4720, 4721, 0, 0, 0, 4818, 4819, 0, 0, 0, 0, 0, 0, 0, 0, 0, 0, 0, 0, 0, 0, 0, 0, 0, 0, 0, 0, 0, 0, 0, 0, 0, 0, 0, 0, 0, 0, 0, 0, 0, 0, 0, 0, 0, 0, 0, 0, 0, 0, 0, 0, 0, 0, 0, 0, 0, 0, 0, 0, 0, 0, 0, 0, 0, 0, 0, 0, 0, 0, 0, 0, 0, 0, 0, 0, 0, 0, 0, 0, 0, 0, 0, 0, 0, 0, 0, 0, 0, 0, 0, 4652, 4653, 0, 0, 0, 0, 0, 0, 4650, 4651, 0, 0, 0, 0, 0, 0, 0, 0, 0, 0, 0, 0, 0, 0, 0, 0, 0, 10644, 0, 0, 0, 0, 0, 0, 0, 0, 0, 0, 0, 0, 0, 0, 0, 0, 0, 0, 0, 0, 0, 0, 0, 0, 0, 0, 0, 0, 0, 0, 0, 0, 0, 0, 0, 0, 0, 0, 0, 0, 0, 0, 0, 0, 0, 0, 0, 0, 0, 0, 0, 0, 0, 0, 0, 0, 0, 0, 0, 0, 0, 0, 0, 4714, 4715, 4656, 0, 0, 0, 0, 0, 4654, 4655, 4751, 0, 0, 0, 0, 0, 0, 0, 0, 0, 0, 0, 0, 0, 0, 0, 0, 0, 0, 0, 0, 0, 0, 0, 0, 0, 0, 0, 0, 0, 0, 0, 0, 0, 0, 0, 0, 0, 0, 0, 0, 0, 0, 0, 0, 0, 0, 0, 0, 0, 0, 0, 0, 0, 0, 0, 0, 0, 0, 0, 0, 0, 0, 0, 0, 0, 0, 0, 0, 0, 0, 0, 0, 0, 0, 0, 0, 0, 0, 0, 0, 0, 0, 0, 0, 0, 0, 0, 0, 0, 0, 0, 0, 0, 0, 0, 0, 0, 0, 0, 0, 0, 0, 0, 0, 0, 0, 0, 0, 0, 0, 0, 0, 0, 0, 0, 0, 0, 0, 0, 0, 0, 0, 0, 0, 0, 0, 0, 0, 0, 0, 0, 0, 0, 0, 0, 0, 0, 0, 0, 0, 0, 0, 0, 0, 0, 0, 0, 0, 0, 0, 0, 0, 0, 0, 0, 0, 0, 0, 0, 0, 0, 0, 0, 0, 0, 0, 0, 0, 0, 0, 0, 0, 0, 0, 0, 0, 0, 0, 0, 0, 0, 0, 0, 0, 0, 0, 0, 0, 0, 0],
         "height":21,
         "id":12,
         "name":"atop of top",
         "opacity":1,
         "type":"tilelayer",
         "visible":true,
         "width":23,
         "x":0,
         "y":0
        }, 
        {
         "data":[0, 0, 0, 0, 0, 0, 0, 0, 0, 0, 0, 0, 0, 0, 0, 0, 0, 0, 0, 0, 0, 0, 0, 0, 0, 0, 0, 0, 0, 0, 0, 0, 0, 0, 0, 0, 0, 0, 0, 0, 0, 0, 0, 0, 0, 0, 0, 0, 0, 0, 0, 0, 0, 0, 0, 0, 0, 0, 0, 0, 0, 0, 0, 0, 0, 0, 0, 0, 0, 0, 0, 0, 801, 802, 0, 0, 0, 0, 0, 0, 0, 0, 0, 0, 0, 0, 0, 806, 0, 0, 0, 0, 0, 0, 0, 817, 818, 0, 0, 0, 0, 0, 0, 0, 0, 0, 0, 0, 0, 0, 822, 823, 0, 0, 0, 0, 0, 0, 833, 834, 0, 0, 0, 0, 0, 0, 0, 0, 0, 0, 0, 0, 0, 838, 839, 0, 0, 0, 0, 0, 0, 849, 834, 0, 0, 0, 0, 0, 0, 0, 0, 0, 0, 0, 0, 0, 838, 855, 0, 0, 0, 0, 0, 0, 849, 834, 0, 0, 0, 0, 0, 0, 0, 0, 0, 0, 0, 0, 0, 838, 855, 0, 0, 0, 0, 0, 0, 849, 834, 0, 0, 0, 0, 0, 0, 0, 0, 0, 0, 0, 0, 0, 838, 855, 0, 0, 0, 0, 0, 0, 849, 834, 0, 0, 0, 0, 0, 0, 0, 0, 0, 0, 0, 0, 0, 838, 855, 0, 0, 0, 0, 0, 0, 849, 834, 0, 0, 0, 0, 0, 0, 0, 0, 0, 0, 0, 0, 0, 838, 855, 0, 0, 0, 0, 0, 0, 849, 834, 0, 0, 0, 0, 0, 0, 0, 0, 0, 0, 0, 0, 0, 838, 855, 0, 0, 0, 0, 0, 0, 849, 834, 0, 0, 0, 0, 0, 0, 0, 0, 0, 0, 0, 0, 0, 838, 855, 0, 0, 0, 0, 0, 0, 849, 834, 0, 0, 0, 0, 0, 0, 0, 0, 0, 0, 0, 0, 0, 838, 855, 0, 0, 0, 0, 0, 0, 849, 834, 0, 0, 0, 0, 0, 0, 0, 0, 0, 0, 0, 0, 0, 838, 855, 0, 0, 0, 0, 0, 0, 849, 834, 0, 0, 0, 0, 0, 0, 0, 0, 0, 0, 0, 0, 0, 838, 855, 0, 0, 0, 0, 0, 0, 849, 834, 0, 0, 0, 0, 0, 0, 0, 0, 0, 0, 0, 0, 0, 838, 855, 0, 0, 0, 0, 0, 0, 849, 850, 0, 0, 0, 0, 0, 0, 0, 0, 0, 0, 0, 0, 0, 854, 855, 0, 0, 0, 0, 0, 0, 865, 866, 0, 0, 0, 0, 0, 0, 0, 0, 0, 0, 0, 0, 0, 870, 871, 0, 0, 0, 0, 0, 0, 0, 0, 0, 0, 0, 0, 0, 0, 0, 0, 0, 0, 0, 0, 10521, 0, 0, 0, 0, 0, 0, 0, 0, 0, 0, 0, 0, 0, 0, 0, 0, 0, 0, 0, 0, 0, 0, 10537, 0, 0, 0, 0, 0],
         "height":21,
         "id":2,
         "name":"sides",
         "opacity":1,
         "type":"tilelayer",
         "visible":true,
         "width":23,
         "x":0,
         "y":0
        }, 
        {
         "data":[0, 0, 0, 0, 0, 0, 0, 0, 0, 0, 0, 0, 0, 0, 0, 0, 0, 0, 0, 0, 0, 0, 0, 0, 0, 0, 0, 0, 0, 0, 0, 0, 0, 0, 0, 0, 0, 0, 0, 0, 0, 0, 0, 0, 0, 0, 0, 0, 0, 0, 0, 0, 0, 0, 0, 0, 0, 0, 0, 0, 0, 0, 0, 0, 0, 0, 0, 0, 0, 0, 0, 0, 0, 888, 803, 0, 0, 0, 0, 0, 0, 0, 0, 0, 0, 0, 805, 0, 0, 0, 0, 0, 0, 0, 0, 0, 904, 819, 0, 0, 0, 0, 0, 0, 0, 0, 0, 0, 0, 821, 891, 0, 0, 0, 0, 0, 0, 0, 0, 904, 819, 0, 0, 0, 0, 0, 0, 0, 0, 0, 0, 0, 821, 907, 0, 0, 0, 0, 0, 0, 0, 0, 904, 819, 0, 0, 0, 0, 0, 0, 0, 0, 0, 0, 0, 821, 891, 0, 0, 0, 0, 0, 0, 0, 0, 904, 819, 0, 0, 0, 0, 0, 0, 0, 0, 0, 0, 0, 821, 907, 0, 0, 0, 0, 0, 0, 0, 0, 904, 819, 0, 0, 0, 0, 0, 0, 0, 0, 0, 0, 0, 821, 907, 0, 0, 0, 0, 0, 0, 0, 0, 904, 819, 0, 0, 0, 0, 0, 0, 0, 0, 0, 0, 0, 821, 891, 0, 0, 0, 0, 0, 0, 0, 0, 904, 819, 0, 0, 0, 0, 0, 0, 0, 0, 0, 0, 0, 821, 907, 0, 0, 0, 0, 0, 0, 0, 0, 904, 819, 0, 0, 0, 0, 0, 0, 0, 0, 0, 0, 0, 821, 891, 0, 0, 0, 0, 0, 0, 0, 0, 904, 819, 0, 0, 0, 0, 0, 0, 0, 0, 0, 0, 0, 821, 907, 0, 0, 0, 0, 0, 0, 0, 0, 904, 819, 0, 0, 0, 0, 0, 0, 0, 0, 0, 0, 0, 821, 891, 0, 0, 0, 0, 0, 0, 0, 0, 904, 819, 0, 0, 0, 0, 0, 0, 0, 0, 0, 0, 0, 821, 891, 0, 0, 0, 0, 0, 0, 0, 0, 904, 819, 0, 0, 0, 0, 0, 0, 0, 0, 0, 0, 0, 821, 907, 0, 0, 0, 0, 0, 0, 0, 0, 920, 835, 836, 836, 836, 836, 836, 836, 836, 836, 836, 836, 836, 837, 923, 0, 0, 0, 0, 0, 0, 0, 0, 0, 851, 852, 852, 852, 852, 852, 852, 852, 852, 852, 852, 852, 853, 0, 0, 0, 0, 0, 0, 0, 0, 0, 0, 867, 0, 0, 0, 0, 0, 0, 0, 0, 0, 0, 0, 869, 0, 0, 0, 0, 0, 0, 0, 0, 0, 0, 0, 0, 0, 0, 0, 0, 0, 0, 0, 0, 0, 0, 0, 0, 0, 0, 0, 0, 0, 0, 0, 0, 0, 0, 0, 0, 0, 0, 0, 0, 0, 0, 0, 0, 0, 0, 0, 0, 0, 0, 0],
         "height":21,
         "id":5,
         "name":"top tent",
         "opacity":0.66,
         "type":"tilelayer",
         "visible":true,
         "width":23,
         "x":0,
         "y":0
        }, 
        {
         "data":[7916, 7508, 7446, 7447, 7448, 7449, 7450, 7451, 7452, 7453, 7454, 7455, 7456, 7457, 7458, 7459, 7460, 7461, 7462, 7463, 7464, 7528, 7529, 7916, 7572, 7510, 7511, 7512, 7513, 7514, 7515, 7516, 7517, 7518, 7519, 7520, 7521, 7522, 7523, 7524, 7525, 7526, 7527, 7528, 7592, 7593, 7916, 7917, 7918, 7574, 7575, 7576, 7577, 7578, 7579, 7580, 7581, 7582, 7583, 7584, 7585, 7586, 7587, 8360, 8361, 7912, 7913, 7914, 7915, 7916, 7917, 7918, 7638, 7639, 7640, 7641, 7642, 7643, 7644, 7645, 7646, 7647, 7648, 7649, 7650, 7651, 7652, 8360, 7976, 7977, 7978, 7979, 7916, 7917, 7918, 7702, 7703, 7704, 7705, 7706, 7707, 7708, 7709, 7710, 7711, 7712, 7713, 7714, 7715, 7716, 7717, 8040, 8041, 8042, 8043, 7916, 7917, 7918, 7766, 7767, 7768, 7769, 7770, 7771, 7772, 7773, 7774, 7775, 7776, 7777, 7778, 7779, 7780, 7781, 8104, 8105, 8106, 8107, 7916, 7917, 7918, 7830, 7831, 7832, 7833, 7834, 7835, 7836, 7837, 7838, 7839, 7840, 7841, 7842, 7843, 7844, 7845, 8168, 8169, 8170, 8171, 7916, 7917, 7918, 7894, 7895, 7896, 7897, 7898, 7899, 7900, 7901, 7902, 7903, 7904, 7905, 7906, 7907, 7908, 7909, 8232, 8233, 8234, 8235, 7916, 7917, 7918, 7958, 7959, 7960, 7961, 7962, 7963, 7964, 7965, 7966, 7967, 7968, 7969, 7970, 7971, 7972, 7973, 8296, 8297, 8298, 8299, 7917, 7918, 7982, 8022, 8023, 8024, 8025, 8026, 8027, 8028, 8029, 8030, 8031, 8032, 8033, 8034, 8035, 8036, 8037, 8360, 8361, 8362, 8363, 8020, 8020, 8021, 8022, 8023, 8024, 8025, 8026, 8027, 8028, 8029, 8030, 8031, 8032, 8033, 8034, 8035, 8036, 8037, 8038, 8039, 8040, 8041, 8084, 8084, 8085, 8086, 8087, 8088, 8089, 8090, 8091, 8092, 8093, 8094, 8095, 8096, 8097, 8098, 8099, 8100, 8101, 8102, 8103, 8104, 8105, 7917, 7918, 8046, 8086, 8087, 8088, 8089, 8090, 8091, 8092, 8093, 8094, 8095, 8096, 8097, 8098, 8099, 8100, 8101, 8360, 8361, 8362, 8363, 7917, 7918, 8110, 8150, 8151, 8152, 8153, 8154, 8155, 8156, 8157, 8158, 8159, 8160, 8161, 8162, 8163, 8164, 8165, 8360, 8361, 8362, 8363, 7917, 7918, 8174, 8214, 8215, 8216, 8217, 8218, 8219, 8220, 8221, 8222, 8223, 8224, 8225, 8226, 8227, 8228, 8229, 8360, 8361, 8362, 8363, 7916, 7917, 7918, 8278, 8279, 8280, 8281, 8282, 8283, 8284, 8285, 8286, 8287, 8288, 8289, 8290, 8291, 8292, 8293, 8294, 8295, 8296, 0, 7980, 7981, 7982, 8342, 8343, 8344, 8345, 8346, 8347, 8348, 8349, 8350, 8351, 8352, 8353, 8354, 8355, 8356, 8357, 8358, 8359, 8360, 0, 8044, 8045, 8046, 8406, 8407, 8408, 8409, 8410, 8411, 8412, 8413, 8414, 8415, 8416, 8417, 8418, 8419, 8420, 8421, 8422, 8423, 8424, 0, 8108, 8109, 8110, 8470, 8471, 8472, 8473, 8474, 8475, 8476, 8477, 8478, 8479, 8480, 8481, 8482, 8483, 8484, 8485, 8486, 8487, 8488, 0, 8172, 8173, 8174, 8534, 8535, 8536, 8537, 8538, 8539, 8540, 8541, 8542, 8543, 8544, 8545, 8546, 8547, 8548, 8549, 8550, 8551, 8552, 0, 8236, 8237, 8238, 8598, 8599, 8600, 8601, 8602, 8603, 8604, 8605, 8606, 8607, 8608, 8609, 8610, 8611, 8612, 8613, 8614, 8615, 8616, 0],
         "height":21,
         "id":9,
         "name":"darkness",
         "opacity":0.66,
         "type":"tilelayer",
         "visible":true,
         "width":23,
         "x":0,
         "y":0
        }],
 "nextlayerid":16,
 "nextobjectid":1,
 "orientation":"orthogonal",
 "renderorder":"right-down",
 "tiledversion":"1.8.0",
 "tileheight":32,
 "tilesets":[
        {
         "columns":16,
         "firstgid":1,
         "image":"tilesets\/decorations-medieval.png",
         "imageheight":2048,
         "imagewidth":512,
         "margin":0,
         "name":"decorations-medieval",
         "properties":[
                {
                 "name":"tilesetCopyright",
                 "type":"string",
                 "value":"[LPC] Hanging signs\nReemax\nCC-BY-SA 3.0 \/ GPL 3.0\nhttps:\/\/opengameart.org\/content\/lpc-hanging-signs\n\nLiberated Pixel Cup (LPC) Base Assets\nLanea Zimmerman (Sharm)\nCC-BY-SA 3.0 \/ GPL 3.0\nhttps:\/\/opengameart.org\/content\/liberated-pixel-cup-lpc-base-assets-sprites-map-tiles\n\n[LPC] City outside\nReemax (Tuomo Untinen), Xenodora, Sharm, Johann C, Johannes Sj\u00f6lund\nCC-BY-SA 3.0 \/ GPL 3.0 \/ GPL 2.0\nhttps:\/\/opengameart.org\/content\/lpc-city-outside\n\n[LPC] Cavern and ruin tiles\nCC-BY-SA 3.0 \/ GPL 3.0 \/ GPL 2.0\nReemax, Sharm, Hyptosis, Johann C, HughSpectrum, Redshrike, William.Thompsonj, wulax, \nhttps:\/\/opengameart.org\/node\/33913\n\nStatues & Fountains Collection\nCasper Nilsson, Daniel Cook, Rayane F\u00e9lix (RayaneFLX), Wolthera van H\u00f6vell tot Westerflier (TheraHedwig), Hyptosis, mold, Zachariah Husiar (Zabin), & Clint Bellanger\nCC-BY-SA 3.0\nhttps:\/\/opengameart.org\/content\/statues-fountains-collection\n\nLPC C.Nilsson\nCasper Nilsson\nCC-BY-SA 3.0 \/ GPL 3.0\nhttps:\/\/opengameart.org\/content\/lpc-cnilsson\n\nLPC Style Well\nCC-BY 3.0 \/ GPL 3.0\nXenodora, Sharm\nhttps:\/\/opengameart.org\/content\/lpc-style-well\n\nRPG item set\nJetrel\nCC0\nhttps:\/\/opengameart.org\/content\/rpg-item-set\n\n[LPC] Guido Bos entries cut up\nGuido Bos\nCC-BY-SA 3.0 \/ GPL 3.0\nhttps:\/\/opengameart.org\/content\/lpc-guido-bos-entries-cut-up\n\nLPC Sign Post\nNemisys\nCC-BY 3.0 \/ CC-BY-SA 3.0 \/ GPL 3.0 \/ OGA-BY 3.0\nhttps:\/\/opengameart.org\/content\/lpc-sign-post\n\n[LPC] Signposts, graves, line cloths and scare crow\nReemax\nCC-BY-SA 3.0 \/ GPL 3.0\nhttps:\/\/opengameart.org\/content\/lpc-signposts-graves-line-cloths-and-scare-crow\n\n[LPC] Hanging signs\nReemax\nCC-BY-SA 3.0 \/ GPL 3.0\nhttps:\/\/opengameart.org\/content\/lpc-hanging-signs\n\nHyptosis\nMage City Arcanos\nCC0\nhttps:\/\/opengameart.org\/content\/mage-city-arcanos\n\n[LPC] Street Lamp\nCurt\nCC-BY 3.0\nhttps:\/\/opengameart.org\/content\/lpc-street-lamp\n\n[LPC] Misc\nLanea Zimmerman (Sharm), William.Thompsonj\nCC-BY 3.0 \/ GPL 3.0 \/ GPL 2.0 \/ OGA-BY 3.0\nhttps:\/\/opengameart.org\/content\/lpc-misc\n\nRPG Tiles: Cobble stone paths & town objects\nhttps:\/\/opengameart.org\/content\/rpg-tiles-cobble-stone-paths-town-objects\nZabin, Daneeklu, Jetrel, Hyptosis, Redshrike, Bertram. \nCC-BY-SA 3.0\n\n[LPC] Farming tilesets, magic animations and UI elements\nhttps:\/\/opengameart.org\/content\/lpc-farming-tilesets-magic-animations-and-ui-elements\nDaniel Eddeland (daneeklu)\nCC-BY-SA 3.0 \/ GPL 3.0\n\nRPG item set\nJetrel\nCC0\nhttps:\/\/opengameart.org\/content\/rpg-item-set\n\nRPG Indoor Tileset: Expansion 1\nRedshrike\nCC-BY 3.0 \/ GPL 3.0 \/ GPL 2.0 \/ OGA-BY 3.0\nhttps:\/\/opengameart.org\/content\/rpg-indoor-tileset-expansion-1\n\n[LPC] Dungeon Elements\nLanea Zimmerman (Sharm), William.Thompsonj\nCC-BY 3.0 \/ GPL 3.0 \/ GPL 2.0 \/ OGA-BY 3.0\nhttps:\/\/opengameart.org\/content\/lpc-dungeon-elements"
                }],
         "spacing":0,
         "tilecount":1024,
         "tileheight":32,
         "tiles":[
                {
                 "id":801,
                 "properties":[
                        {
                         "name":"collides",
                         "type":"bool",
                         "value":true
                        }]
                }, 
                {
                 "id":802,
                 "properties":[
                        {
                         "name":"collides",
                         "type":"bool",
                         "value":true
                        }]
                }, 
                {
                 "id":803,
                 "properties":[
                        {
                         "name":"collides",
                         "type":"bool",
                         "value":true
                        }]
                }, 
                {
                 "id":804,
                 "properties":[
                        {
                         "name":"collides",
                         "type":"bool",
                         "value":true
                        }]
                }, 
                {
                 "id":805,
                 "properties":[
                        {
                         "name":"collides",
                         "type":"bool",
                         "value":true
                        }]
                }, 
                {
                 "id":816,
                 "properties":[
                        {
                         "name":"collides",
                         "type":"bool",
                         "value":true
                        }]
                }, 
                {
                 "id":817,
                 "properties":[
                        {
                         "name":"collides",
                         "type":"bool",
                         "value":true
                        }]
                }, 
                {
                 "id":818,
                 "properties":[
                        {
                         "name":"collides",
                         "type":"bool",
                         "value":false
                        }]
                }, 
                {
                 "id":819,
                 "properties":[
                        {
                         "name":"collides",
                         "type":"bool",
                         "value":false
                        }]
                }, 
                {
                 "id":820,
                 "properties":[
                        {
                         "name":"collides",
                         "type":"bool",
                         "value":false
                        }]
                }, 
                {
                 "id":821,
                 "properties":[
                        {
                         "name":"collides",
                         "type":"bool",
                         "value":true
                        }]
                }, 
                {
                 "id":822,
                 "properties":[
                        {
                         "name":"collides",
                         "type":"bool",
                         "value":true
                        }]
                }, 
                {
                 "id":832,
                 "properties":[
                        {
                         "name":"collides",
                         "type":"bool",
                         "value":true
                        }]
                }, 
                {
                 "id":833,
                 "properties":[
                        {
                         "name":"collides",
                         "type":"bool",
                         "value":true
                        }]
                }, 
                {
                 "id":834,
                 "properties":[
                        {
                         "name":"collides",
                         "type":"bool",
                         "value":false
                        }]
                }, 
                {
                 "id":835,
                 "properties":[
                        {
                         "name":"collides",
                         "type":"bool",
                         "value":false
                        }]
                }, 
                {
                 "id":836,
                 "properties":[
                        {
                         "name":"collides",
                         "type":"bool",
                         "value":false
                        }]
                }, 
                {
                 "id":837,
                 "properties":[
                        {
                         "name":"collides",
                         "type":"bool",
                         "value":true
                        }]
                }, 
                {
                 "id":838,
                 "properties":[
                        {
                         "name":"collides",
                         "type":"bool",
                         "value":true
                        }]
                }, 
                {
                 "id":848,
                 "properties":[
                        {
                         "name":"collides",
                         "type":"bool",
                         "value":true
                        }]
                }, 
                {
                 "id":849,
                 "properties":[
                        {
                         "name":"collides",
                         "type":"bool",
                         "value":true
                        }]
                }, 
                {
                 "id":853,
                 "properties":[
                        {
                         "name":"collides",
                         "type":"bool",
                         "value":true
                        }]
                }, 
                {
                 "id":854,
                 "properties":[
                        {
                         "name":"collides",
                         "type":"bool",
                         "value":true
                        }]
                }, 
                {
                 "id":864,
                 "properties":[
                        {
                         "name":"collides",
                         "type":"bool",
                         "value":true
                        }]
                }, 
                {
                 "id":865,
                 "properties":[
                        {
                         "name":"collides",
                         "type":"bool",
                         "value":true
                        }]
                }, 
                {
                 "id":869,
                 "properties":[
                        {
                         "name":"collides",
                         "type":"bool",
                         "value":true
                        }]
                }, 
                {
                 "id":870,
                 "properties":[
                        {
                         "name":"collides",
                         "type":"bool",
                         "value":true
                        }]
                }, 
                {
                 "id":880,
                 "properties":[
                        {
                         "name":"collides",
                         "type":"bool",
                         "value":true
                        }]
                }, 
                {
                 "id":881,
                 "properties":[
                        {
                         "name":"collides",
                         "type":"bool",
                         "value":true
                        }]
                }, 
                {
                 "id":885,
                 "properties":[
                        {
                         "name":"collides",
                         "type":"bool",
                         "value":true
                        }]
                }, 
                {
                 "id":886,
                 "properties":[
                        {
                         "name":"collides",
                         "type":"bool",
                         "value":true
                        }]
                }, 
                {
                 "id":896,
                 "properties":[
                        {
                         "name":"collides",
                         "type":"bool",
                         "value":true
                        }]
                }, 
                {
                 "id":902,
                 "properties":[
                        {
                         "name":"collides",
                         "type":"bool",
                         "value":true
                        }]
                }],
         "tilewidth":32
        }, 
        {
         "columns":9,
         "firstgid":1025,
         "image":"tilesets\/world-tiles\/structures\/mapUtilities.png",
         "imageheight":32,
         "imagewidth":288,
         "margin":0,
         "name":"mapUtilities",
         "properties":[
                {
                 "name":"tilesetCopyright",
                 "type":"string",
                 "value":"free for non-commercial use"
                }],
         "spacing":0,
         "tilecount":9,
         "tileheight":32,
         "tilewidth":32
        }, 
        {
         "columns":8,
         "firstgid":1034,
         "image":"tilesets\/base_pipo_crop.png",
         "imageheight":3932,
         "imagewidth":256,
         "margin":0,
         "name":"base_pipo_crop",
         "properties":[
                {
                 "name":"tilesetCopyright",
                 "type":"string",
                 "value":"free for non-commercial use"
                }],
         "spacing":0,
         "tilecount":976,
         "tileheight":32,
         "tilewidth":32
        }, 
        {
         "columns":32,
         "firstgid":2010,
         "image":"tilesets\/Room_Builder_Walls_32x32.png",
         "imageheight":1280,
         "imagewidth":1024,
         "margin":0,
         "name":"Room_Builder_Walls_32x32",
         "properties":[
                {
                 "name":"tilesetCopyright",
                 "type":"string",
                 "value":"Free to use in any commercial  or non commercial project - Modern Interior by LimeZu https:\/\/limezu.itch.io\/moderninteriors - worth buying!"
                }],
         "spacing":0,
         "tilecount":1280,
         "tileheight":32,
         "tiles":[
                {
                 "id":971,
                 "properties":[
                        {
                         "name":"collides",
                         "type":"bool",
                         "value":false
                        }]
                }, 
                {
                 "id":972,
                 "properties":[
                        {
                         "name":"collides",
                         "type":"bool",
                         "value":false
                        }]
                }, 
                {
                 "id":973,
                 "properties":[
                        {
                         "name":"collides",
                         "type":"bool",
                         "value":false
                        }]
                }, 
                {
                 "id":974,
                 "properties":[
                        {
                         "name":"collides",
                         "type":"bool",
                         "value":false
                        }]
                }, 
                {
                 "id":975,
                 "properties":[
                        {
                         "name":"collides",
                         "type":"bool",
                         "value":false
                        }]
                }, 
                {
                 "id":976,
                 "properties":[
                        {
                         "name":"collides",
                         "type":"bool",
                         "value":false
                        }]
                }, 
                {
                 "id":977,
                 "properties":[
                        {
                         "name":"collides",
                         "type":"bool",
                         "value":false
                        }]
                }, 
                {
                 "id":978,
                 "properties":[
                        {
                         "name":"collides",
                         "type":"bool",
                         "value":false
                        }]
                }, 
                {
                 "id":979,
                 "properties":[
                        {
                         "name":"collides",
                         "type":"bool",
                         "value":false
                        }]
                }, 
                {
                 "id":980,
                 "properties":[
                        {
                         "name":"collides",
                         "type":"bool",
                         "value":false
                        }]
                }, 
                {
                 "id":1003,
                 "properties":[
                        {
                         "name":"collides",
                         "type":"bool",
                         "value":true
                        }]
                }, 
                {
                 "id":1004,
                 "properties":[
                        {
                         "name":"collides",
                         "type":"bool",
                         "value":true
                        }]
                }, 
                {
                 "id":1005,
                 "properties":[
                        {
                         "name":"collides",
                         "type":"bool",
                         "value":true
                        }]
                }, 
                {
                 "id":1006,
                 "properties":[
                        {
                         "name":"collides",
                         "type":"bool",
                         "value":true
                        }]
                }, 
                {
                 "id":1007,
                 "properties":[
                        {
                         "name":"collides",
                         "type":"bool",
                         "value":true
                        }]
                }, 
                {
                 "id":1008,
                 "properties":[
                        {
                         "name":"collides",
                         "type":"bool",
                         "value":true
                        }]
                }, 
                {
                 "id":1009,
                 "properties":[
                        {
                         "name":"collides",
                         "type":"bool",
                         "value":true
                        }]
                }, 
                {
                 "id":1010,
                 "properties":[
                        {
                         "name":"collides",
                         "type":"bool",
                         "value":true
                        }]
                }, 
                {
                 "id":1011,
                 "properties":[
                        {
                         "name":"collides",
                         "type":"bool",
                         "value":true
                        }]
                }, 
                {
                 "id":1012,
                 "properties":[
                        {
                         "name":"collides",
                         "type":"bool",
                         "value":true
                        }]
                }],
         "tilewidth":32
        }, 
        {
         "columns":45,
         "firstgid":3290,
         "image":"tilesets\/Room_Builder_borders_32x32.png",
         "imageheight":320,
         "imagewidth":1440,
         "margin":0,
         "name":"Room_Builder_borders_32x32",
         "properties":[
                {
                 "name":"tilesetCopyright",
                 "type":"string",
                 "value":"Free to use in any commercial  or non commercial project - Modern Interior by LimeZu https:\/\/limezu.itch.io\/moderninteriors - worth buying!"
                }],
         "spacing":0,
         "tilecount":450,
         "tileheight":32,
         "tilewidth":32
        }, 
        {
         "columns":15,
         "firstgid":3740,
         "image":"tilesets\/Room_Builder_Floors_32x32.png",
         "imageheight":1280,
         "imagewidth":480,
         "margin":0,
         "name":"Room_Builder_Floors_32x32",
         "properties":[
                {
                 "name":"tilesetCopyright",
                 "type":"string",
                 "value":"Free to use in any commercial  or non commercial project - Modern Interior by LimeZu https:\/\/limezu.itch.io\/moderninteriors - worth buying!"
                }],
         "spacing":0,
         "tilecount":600,
         "tileheight":32,
         "tilewidth":32
        }, 
        {
         "columns":16,
         "firstgid":4340,
         "image":"tilesets\/22_Museum_32x32.png",
         "imageheight":3904,
         "imagewidth":512,
         "margin":0,
         "name":"Museum_32x32",
         "properties":[
                {
                 "name":"tilesetCopyright",
                 "type":"string",
                 "value":"Free to use in any commercial  or non commercial project - Modern Interior by LimeZu https:\/\/limezu.itch.io\/moderninteriors - worth buying!"
                }],
         "spacing":0,
         "tilecount":1952,
         "tileheight":32,
         "tiles":[
                {
                 "id":75,
                 "properties":[
                        {
                         "name":"collides",
                         "type":"bool",
                         "value":false
                        }]
                }, 
                {
                 "id":76,
                 "properties":[
                        {
                         "name":"collides",
                         "type":"bool",
                         "value":false
                        }]
                }, 
                {
                 "id":91,
                 "properties":[
                        {
                         "name":"collides",
                         "type":"bool",
                         "value":true
                        }]
                }, 
                {
                 "id":92,
                 "properties":[
                        {
                         "name":"collides",
                         "type":"bool",
                         "value":true
                        }]
                }, 
                {
                 "id":164,
                 "properties":[
                        {
                         "name":"collides",
                         "type":"bool",
                         "value":true
                        }]
                }, 
                {
                 "id":165,
                 "properties":[
                        {
                         "name":"collides",
                         "type":"bool",
                         "value":true
                        }]
                }, 
                {
                 "id":251,
                 "properties":[
                        {
                         "name":"collides",
                         "type":"bool",
                         "value":false
                        }]
                }, 
                {
                 "id":267,
                 "properties":[
                        {
                         "name":"collides",
                         "type":"bool",
                         "value":true
                        }]
                }, 
                {
                 "id":882,
                 "properties":[
                        {
                         "name":"collides",
                         "type":"bool",
                         "value":true
                        }]
                }, 
                {
                 "id":883,
                 "properties":[
                        {
                         "name":"collides",
                         "type":"bool",
                         "value":true
                        }]
                }, 
                {
                 "id":898,
                 "properties":[
                        {
                         "name":"collides",
                         "type":"bool",
                         "value":true
                        }]
                }, 
                {
                 "id":899,
                 "properties":[
                        {
                         "name":"collides",
                         "type":"bool",
                         "value":true
                        }]
                }],
         "tilewidth":32
        }, 
        {
         "columns":64,
         "firstgid":6292,
         "image":"tilesets\/darkness.png",
         "imageheight":2048,
         "imagewidth":2048,
         "margin":0,
         "name":"darkness",
         "properties":[
                {
                 "name":"tilesetCopyright",
                 "type":"string",
                 "value":"WTFPL"
                }],
         "spacing":0,
         "tilecount":4096,
         "tileheight":32,
         "tilewidth":32
        }, 
        {
         "columns":16,
         "firstgid":10388,
         "image":"tilesets\/urban_streets_c_by_schwarzenacht_d8cmhcy.png",
         "imageheight":512,
         "imagewidth":512,
         "margin":0,
         "name":"urban_streets_c_by_schwarzenacht_d8cmhcy",
         "properties":[
                {
                 "name":"mapCopyright",
                 "type":"string",
                 "value":"by PandaMaru - free for non-commercial works\nhttps:\/\/www.deviantart.com\/schwarzenacht\/art\/urban-streets-C-504933730"
                }, 
                {
                 "name":"tilesetCopyright",
                 "type":"string",
                 "value":"free for non-commercial use"
                }],
         "spacing":0,
         "tilecount":256,
         "tileheight":32,
         "tiles":[
                {
                 "id":53,
                 "properties":[
                        {
                         "name":"collides",
                         "type":"bool",
                         "value":true
                        }]
                }, 
                {
                 "id":54,
                 "properties":[
                        {
                         "name":"collides",
                         "type":"bool",
                         "value":true
                        }]
                }, 
                {
                 "id":69,
                 "properties":[
                        {
                         "name":"collides",
                         "type":"bool",
                         "value":true
                        }]
                }, 
                {
                 "id":70,
                 "properties":[
                        {
                         "name":"collides",
                         "type":"bool",
                         "value":true
                        }]
                }, 
                {
                 "id":80,
                 "properties":[
                        {
                         "name":"collides",
                         "type":"bool",
                         "value":true
                        }]
                }, 
                {
                 "id":81,
                 "properties":[
                        {
                         "name":"collides",
                         "type":"bool",
                         "value":true
                        }]
                }, 
                {
                 "id":133,
                 "properties":[
                        {
                         "name":"collides",
                         "type":"bool",
                         "value":false
                        }]
                }, 
                {
                 "id":149,
                 "properties":[
                        {
                         "name":"collides",
                         "type":"bool",
                         "value":true
                        }]
                }, 
                {
                 "id":168,
                 "properties":[
                        {
                         "name":"collides",
                         "type":"bool",
                         "value":true
                        }]
                }, 
                {
                 "id":173,
                 "properties":[
                        {
                         "name":"collides",
                         "type":"bool",
                         "value":true
                        }]
                }, 
                {
                 "id":189,
                 "properties":[
                        {
                         "name":"collides",
                         "type":"bool",
                         "value":true
                        }]
                }, 
                {
                 "id":240,
                 "properties":[
                        {
                         "name":"collides",
                         "type":"bool",
                         "value":true
                        }]
                }],
         "tilewidth":32
        }, 
        {
         "columns":1,
         "firstgid":10644,
         "image":"tilesets\/wikileaks-logo-mini.png",
         "imageheight":32,
         "imagewidth":32,
         "margin":0,
         "name":"wikileaks-logo-mini",
         "properties":[
                {
                 "name":"tilesetCopyright",
                 "type":"string",
                 "value":"just guess.... a hint: Courage is..... ?"
                }],
         "spacing":0,
         "tilecount":1,
         "tileheight":32,
         "tilewidth":32
        }, 
        {
         "columns":8,
         "firstgid":10645,
         "image":"tilesets\/villagers.png",
         "imageheight":32,
         "imagewidth":256,
         "margin":0,
         "name":"villagers",
         "properties":[
                {
                 "name":"tilesetCopyright",
                 "type":"string",
                 "value":"WTFPL BBQ - Pipoya remix"
                }],
         "spacing":0,
         "tilecount":8,
         "tileheight":32,
         "tiles":[
                {
                 "id":0,
                 "properties":[
                        {
                         "name":"collides",
                         "type":"bool",
                         "value":true
                        }]
                }, 
                {
                 "id":1,
                 "properties":[
                        {
                         "name":"collides",
                         "type":"bool",
                         "value":true
                        }]
                }, 
                {
                 "id":2,
                 "properties":[
                        {
                         "name":"collides",
                         "type":"bool",
                         "value":true
                        }]
                }, 
                {
                 "id":3,
                 "properties":[
                        {
                         "name":"collides",
                         "type":"bool",
                         "value":true
                        }]
                }, 
                {
                 "id":4,
                 "properties":[
                        {
                         "name":"collides",
                         "type":"bool",
                         "value":true
                        }]
                }, 
                {
                 "id":5,
                 "properties":[
                        {
                         "name":"collides",
                         "type":"bool",
                         "value":true
                        }]
                }, 
                {
                 "id":6,
                 "properties":[
                        {
                         "name":"collides",
                         "type":"bool",
                         "value":true
                        }]
                }, 
                {
                 "id":7,
                 "properties":[
                        {
                         "name":"collides",
                         "type":"bool",
                         "value":true
                        }]
                }],
         "tilewidth":32
        }, 
        {
         "columns":8,
         "firstgid":10653,
         "image":"tilesets\/Speech.png",
         "imageheight":256,
         "imagewidth":256,
         "margin":0,
         "name":"Speech",
         "properties":[
                {
                 "name":"tilesetCopyright",
                 "type":"string",
                 "value":"based on CC0 https:\/\/opengameart.org\/content\/emotes-pack"
                }],
         "spacing":0,
         "tilecount":64,
         "tileheight":32,
         "tiles":[
                {
                 "animation":[
                        {
                         "duration":400,
                         "tileid":23
                        }, 
                        {
                         "duration":400,
                         "tileid":1
                        }, 
                        {
                         "duration":400,
                         "tileid":2
                        }, 
                        {
                         "duration":400,
                         "tileid":3
                        }, 
                        {
                         "duration":400,
                         "tileid":6
                        }],
                 "id":1
                }, 
                {
                 "animation":[
                        {
                         "duration":400,
                         "tileid":23
                        }, 
                        {
                         "duration":400,
                         "tileid":15
                        }, 
                        {
                         "duration":400,
                         "tileid":9
                        }, 
                        {
                         "duration":400,
                         "tileid":11
                        }, 
                        {
                         "duration":400,
                         "tileid":13
                        }],
                 "id":9
                }, 
                {
                 "animation":[
                        {
                         "duration":350,
                         "tileid":23
                        }, 
                        {
                         "duration":350,
                         "tileid":15
                        }, 
                        {
                         "duration":350,
                         "tileid":9
                        }, 
                        {
                         "duration":350,
                         "tileid":11
                        }, 
                        {
                         "duration":350,
                         "tileid":13
                        }, 
                        {
                         "duration":400,
                         "tileid":15
                        }],
                 "id":10
                }, 
                {
                 "animation":[
                        {
                         "duration":400,
                         "tileid":23
                        }, 
                        {
                         "duration":400,
                         "tileid":15
                        }, 
                        {
                         "duration":400,
                         "tileid":19
                        }, 
                        {
                         "duration":400,
                         "tileid":20
                        }, 
                        {
                         "duration":400,
                         "tileid":19
                        }, 
                        {
                         "duration":400,
                         "tileid":20
                        }, 
                        {
                         "duration":400,
                         "tileid":21
                        }, 
                        {
                         "duration":400,
                         "tileid":20
                        }],
                 "id":17
                }, 
                {
                 "animation":[
                        {
                         "duration":400,
                         "tileid":23
                        }, 
                        {
                         "duration":400,
                         "tileid":15
                        }, 
                        {
                         "duration":400,
                         "tileid":9
                        }, 
                        {
                         "duration":400,
                         "tileid":11
                        }, 
                        {
                         "duration":400,
                         "tileid":14
                        }],
                 "id":23
                }, 
                {
                 "animation":[
                        {
                         "duration":400,
                         "tileid":23
                        }, 
                        {
                         "duration":400,
                         "tileid":15
                        }, 
                        {
                         "duration":400,
                         "tileid":29
                        }, 
                        {
                         "duration":400,
                         "tileid":30
                        }, 
                        {
                         "duration":400,
                         "tileid":28
                        }, 
                        {
                         "duration":400,
                         "tileid":30
                        }, 
                        {
                         "duration":400,
                         "tileid":29
                        }, 
                        {
                         "duration":400,
                         "tileid":30
                        }, 
                        {
                         "duration":400,
                         "tileid":28
                        }, 
                        {
                         "duration":400,
                         "tileid":30
                        }, 
                        {
                         "duration":400,
                         "tileid":29
                        }],
                 "id":25
                }, 
                {
                 "animation":[
                        {
                         "duration":1000,
                         "tileid":32
                        }, 
                        {
                         "duration":1000,
                         "tileid":20
                        }, 
                        {
                         "duration":1000,
                         "tileid":19
                        }, 
                        {
                         "duration":1000,
                         "tileid":20
                        }, 
                        {
                         "duration":4000,
                         "tileid":40
                        }, 
                        {
                         "duration":4000,
                         "tileid":41
                        }, 
                        {
                         "duration":4000,
                         "tileid":33
                        }],
                 "id":32
                }, 
                {
                 "animation":[
                        {
                         "duration":4000,
                         "tileid":40
                        }, 
                        {
                         "duration":1000,
                         "tileid":42
                        }, 
                        {
                         "duration":1000,
                         "tileid":20
                        }, 
                        {
                         "duration":1000,
                         "tileid":19
                        }, 
                        {
                         "duration":1000,
                         "tileid":20
                        }, 
                        {
                         "duration":4000,
                         "tileid":44
                        }, 
                        {
                         "duration":4000,
                         "tileid":46
                        }],
                 "id":34
                }, 
                {
                 "animation":[
                        {
                         "duration":4000,
                         "tileid":41
                        }, 
                        {
                         "duration":4000,
                         "tileid":43
                        }, 
                        {
                         "duration":1000,
                         "tileid":45
                        }, 
                        {
                         "duration":1000,
                         "tileid":20
                        }, 
                        {
                         "duration":1000,
                         "tileid":19
                        }, 
                        {
                         "duration":1000,
                         "tileid":20
                        }, 
                        {
                         "duration":4000,
                         "tileid":47
                        }],
                 "id":36
                }, 
                {
                 "animation":[
                        {
                         "duration":4000,
                         "tileid":33
                        }, 
                        {
                         "duration":4000,
                         "tileid":35
                        }, 
                        {
                         "duration":4000,
                         "tileid":37
                        }, 
                        {
                         "duration":1000,
                         "tileid":39
                        }, 
                        {
                         "duration":1000,
                         "tileid":20
                        }, 
                        {
                         "duration":1000,
                         "tileid":19
                        }, 
                        {
                         "duration":1000,
                         "tileid":20
                        }],
                 "id":38
                }],
         "tilewidth":32
        }],
 "tilewidth":32,
 "type":"map",
 "version":"1.6",
 "width":23
}